{
  "COLLECTIONS": {
    "USERS": "Users",
    "PLATES": "Plates"
  },
  "INDEXES": {
    "USER": {
      "ALL": "user_all",
      "UNIQUE_NAME": "user_unique_name",
      "UNIQUE_EMAIL": "user_unique_email",
      "ROLE": "user_role"
    },
    "PLATE": {
      "ALL": "plate_all",
      "TAGS": "plate_tags",
      "NAME": "plate_name",
      "OWNER": "plate_owner",
      "PUBLIC": "plate_public",
      "NAME_AND_OWNER": "plate_name_and_owner"
    }
  },
  "ROLES": {
    "GUEST": "guest",
    "LOGGED_IN": "logged_in_user",
    "CONTENT_MANAGER": "content_manager",
    "SERVER": "server"
  },
  "USER_ROLES": {
    "GENERIC": "GENERIC",
    "CONTENT_MANAGER": "CONENT_MANAGER",
    "ADMIN": "ADMIN"
  },
  "FUNCTIONS": {
    "USER": {
      "REGISTER": "register",
      "LOGIN": {
        "WITH_EMAIL": "login_with_email",
        "WITH_USERNAME": "login_with_username"
      },
      "GET": {
        "BY_ID": "user_by_id",
        "BY_USERNAME": "user_by_username",
        "BY_EMAIL": "user_by_email"
      }
    }
  }
}